10Percentile;90Percentile;Energy;Entropy;InterquartileRange;Kurtosis;Maximum;MeanAbsoluteDeviation;Mean;Median;Minimum;Range;RobustMeanAbsoluteDeviation;RootMeanSquared;Skewness;TotalEnergy;Uniformity;Variance;Age;Gleason Score;ALP1;PSA1;time_def;Weight;height;Crea1;GGT1;CRP1;Hb1;Erys1;Thrombos1;Leukos1;patient_id;delta_psa;label;patient_id;delta_psa;label
0.3725490196;0.7019607843;13190.5195847751;-3.20342650381492E-16;0.1411764706;4.3710857782;1;0.0997887132;0.527867538;0.5254901961;0;1;0.0600572747;0.5459091086;0.538399893;13190.5195847751;1;0.0193726172;70;8;147;226;3;101;175;1.01;40;16.2;9.6;3.9;352;7.44;0;1.34;0;0;1.34;0
0.462745098;0.7215686275;26939.2704652057;-3.20342650381492E-16;0.1254901961;4.3772941999;0.9960784314;0.0804071047;0.5693232258;0.5529411765;0.0588235294;0.937254902;0.0532403616;0.5791078317;0.6498556838;26939.2704652057;1;0.0112369453;77;8;435;334;2;83;168;1.31;19;7;11;3.8;322;7.07;1;-0.27;1;1;-0.27;1
0.368627451;0.6;58732.0898269896;-3.20342650381492E-16;0.0823529412;6.7473496497;0.9843137255;0.0680062503;0.4846661474;0.4784313725;0;0.9843137255;0.0373246177;0.4954615292;0.1000366908;58732.0898269896;1;0.0105808525;75;9;174;853;2;61;170;0.64;59;2;11.7;3.9;62;3.3;2;-0.31;1;2;-0.31;1
0.2588235294;0.6431372549;15530.6633602461;-3.20342650381492E-16;0.2039215686;3.5502585221;0.9960784314;0.1236859075;0.4512485624;0.4588235294;0.0196078431;0.9764705882;0.0819008932;0.4795605092;0.2399437425;15530.6633602461;1;0.0263530169;77;9;103;148;6;92;178;1.45;32;18.8;11.5;3.7;170;5.85;3;-0.69;1;3;-0.69;1
0.3843137255;0.6078431373;105977.187281815;-3.20342650381492E-16;0.1019607843;6.9896048951;0.9960784314;0.0809172583;0.5004878275;0.5137254902;0.0196078431;0.9764705882;0.0428317236;0.5152280577;-1.1687174121;105977.187281815;1;0.014971886;72;8;64;915;5;77;186;1.01;74;5;10.1;3.2;226;3.41;4;-0.5;1;4;-0.5;1
0.4705882353;0.7490196078;33941.5470511342;-3.20342650381492E-16;0.1294117647;4.7429085837;1;0.0915863101;0.5779944331;0.5647058824;0.0117647059;0.9882352941;0.0559846554;0.5918272592;-0.0126153032;33941.5470511342;1;0.01618194;69;8;112;841;9;80;187;0.91;21;0.9;12.8;4.2;254;10.83;5;-0.4;1;5;-0.4;1
0.4156862745;0.8039215686;19550.621207228;-3.20342650381492E-16;0.2;3.4477201526;1;0.1281342533;0.5556051576;0.5058823529;0.0117647059;0.9882352941;0.0868868021;0.5791197183;0.2831225464;19550.621207228;1;0.0266825569;71;9;318;764;10;80;175;0.87;41;14.9;10.5;3.6;241;6.78;6;-0.69;1;6;-0.69;1
0.3803921569;0.5882352941;64352.5239677047;-3.20342650381492E-16;0.1254901961;6.085288294;1;0.0834771814;0.4866596912;0.5058823529;0.0274509804;0.9725490196;0.052440451;0.4999816411;-0.671662347;64352.5239677047;1;0.0131439864;81;8;120;193;4;110;174;0.83;19;6.5;12.5;4.7;284;9.08;7;-0.49;1;7;-0.49;1
0.2;0.631372549;65461.369550173;-3.20342650381492E-16;0.1921568627;3.348681392;0.9882352941;0.1335227725;0.4678201626;0.5137254902;0;0.9882352941;0.0902019052;0.4978188605;-0.8962331871;65461.369550173;1;0.0289679133;82;9;92;690;14;63;173;0.9;17;4.6;11.3;3.8;239;4.92;8;-0.87;1;8;-0.87;1
0.2588235294;0.5450980392;33972.945467128;-3.20342650381492E-16;0.168627451;4.0963989881;0.9921568627;0.09889406;0.3875282974;0.3803921569;0;0.9921568627;0.0664118021;0.4084022663;0.4033997947;33972.945467128;1;0.0166142298;80;7;77;1030;10;80;170;0.92;43;7.2;12.5;3.8;280;7.8;9;-0.6;1;9;-0.6;1
0.4392156863;0.6941176471;35524.8872741253;-3.20342650381492E-16;0.1254901961;4.245144524;0.9960784314;0.0843766502;0.5476507548;0.5333333333;0.0392156863;0.9568627451;0.0560696578;0.5587335682;0.5786722817;35524.8872741253;1;0.012261851;76;9;111;17.1;1;97;182;1.09;35;1.5;9.8;3.2;270;3.4;10;-0.59;1;10;-0.59;1
0.4117647059;0.6941176471;33502.0441368704;-3.20342650381492E-16;0.1333333333;5.0983318346;0.9960784314;0.0967480072;0.5178503927;0.4862745098;0.0666666667;0.9294117647;0.0577596739;0.5351301576;0.3184201157;33502.0441368704;1;0.0181952564;73;8;110;649;4;85;179;0.83;26;3.4;12.6;4;264;4.1;11;-0.32;1;11;-0.32;1
0.2901960784;0.6274509804;43027.5663975394;-3.20342650381492E-16;0.1215686275;4.5957543159;0.9921568627;0.103124075;0.4666254964;0.4784313725;0;0.9921568627;0.0596357526;0.4888825878;-0.487011019;43027.5663975394;1;0.0212668308;80;8;56;39.6;11;75;172;0.71;21;0.2;11.6;3.6;248;4.91;12;-0.26;1;12;-0.26;1
0.3764705882;0.7529411765;97178.3886043829;-3.20342650381492E-16;0.0941176471;4.3288661759;0.9960784314;0.1113307158;0.501047391;0.462745098;0;0.9960784314;0.0611677374;0.5254641942;0.4343592436;97178.3886043829;1;0.0250641313;68;9;585;851;4;56;172;0.89;121;21.9;9.5;3.3;175;4.45;13;-0.27;1;13;-0.27;1
0.2745098039;0.631372549;90138.7390080738;-3.20342650381492E-16;0.1725490196;3.6769127404;0.9921568627;0.1200635496;0.4870236298;0.5294117647;0.0156862745;0.9764705882;0.0784885697;0.5110459833;-0.6802915014;90138.7390080738;1;0.0239759811;76;9;91;129;6;81;183;0.96;28;6.7;12.9;4.5;261;6.46;14;-0.05;1;14;-0.05;1
0.3725490196;0.6549019608;52792.6384159939;-3.20342650381492E-16;0.1411764706;5.5897149413;0.9960784314;0.108825627;0.4947050783;0.5137254902;0.0117647059;0.9843137255;0.0604114996;0.5192267415;-1.1665252548;52792.6384159939;1;0.0248632946;87;6;179;445;10;80;186;0.71;35;13.8;9.7;3.7;380;6.67;15;-0.6;1;15;-0.6;1
0.2784313725;0.6156862745;138261.006105344;-3.20342650381492E-16;0.1764705882;3.4896111905;0.9921568627;0.1113469678;0.4734982719;0.4941176471;0.0117647059;0.9803921569;0.0793137053;0.4933216773;-0.7153472081;138261.006105344;1;0.0191656639;66;8;97;178;6;70;174;1.33;22;4.2;10.5;3.2;143;6.88;16;-0.89;1;16;-0.89;1
0.337254902;0.6196078431;65068.8390157632;-3.20342650381492E-16;0.1529411765;4.652253644;0.9960784314;0.1049142863;0.4796874665;0.4784313725;0.0117647059;0.9843137255;0.0670517568;0.4995993263;-0.1272990217;65068.8390157632;1;0.0194994213;77;9;110;4.73;4;71;170;0.78;61;33.3;12.1;4.2;332;9.4;17;-0.4;1;17;-0.4;1
0.2784313725;0.5490196078;70578.9799154172;-3.20342650381492E-16;0.1058823529;5.4186354208;0.9960784314;0.0915851262;0.4542659773;0.4862745098;0;0.9960784314;0.0510071393;0.4729260908;-0.9048446784;70578.9799154172;1;0.0173015092;71;7;68;5.58;4;72;172;0.88;29;37.9;11.4;3.6;207;5.15;18;-0.87;1;18;-0.87;1
0.3294117647;0.6392156863;9159.9059284891;-3.20342650381492E-16;0.2039215686;3.7606233943;0.9803921569;0.1053427909;0.4945946431;0.5098039216;0.0352941176;0.9450980392;0.078092363;0.5117091574;-0.4777880617;9159.9059284891;1;0.0172224008;63;11;92;16.5;3;92;184;1;46;21.9;12.3;3.6;261;6.01;19;0.52;0;19;0.52;0
0.462745098;0.6588235294;9349.7637677816;-3.20342650381492E-16;0.0705882353;6.9335487743;0.9960784314;0.068169479;0.5343121985;0.5176470588;0.0352941176;0.9607843137;0.0331917653;0.5451475413;0.0575992046;9349.7637677816;1;0.0116963163;48;9;77;42.5;3;74;181;0.69;33;3.7;13.3;3.9;267;9.9;20;0.18;0;20;0.18;0
0.3058823529;0.7411764706;56168.1493579393;-3.20342650381492E-16;0.1960784314;3.2598267556;0.9960784314;0.1256308104;0.5292271231;0.5176470588;0.0196078431;0.9764705882;0.0854996571;0.5537008766;-0.192500927;56168.1493579393;1;0.0265033129;75;11;533;1160;9;70;182;0.63;48;15.7;10.9;3.7;249;5.38;21;-0.94;1;21;-0.94;1
0.3333333333;0.537254902;58883.3414379085;-3.20342650381492E-16;0.0901960784;6.8829545057;0.9960784314;0.0713660054;0.4472487378;0.4588235294;0.0039215686;0.9921568627;0.0391915858;0.4597173122;-0.5576684813;58883.3414379085;1;0.0113085736;69;10;37;10.2;0;105;180;1;30;0.5;11.7;3.6;197;4.68;22;-0.38;1;22;-0.38;1
0.3176470588;0.6862745098;33606.5086966551;-3.20342650381492E-16;0.1568627451;3.1395632342;0.9882352941;0.103467173;0.5213357258;0.5098039216;0.0156862745;0.9725490196;0.0700529803;0.5379840566;-0.145087243;33606.5086966551;1;0.0176359061;71;10;216;474;2;70;176;0.71;27;27.2;6;1.9;305;4.71;23;0.89;0;23;0.89;0
0.3843137255;0.6823529412;66571.5052056901;-3.20342650381492E-16;0.1411764706;4.2599120033;0.9960784314;0.0999188629;0.5008890642;0.4901960784;0.0156862745;0.9803921569;0.0669120165;0.5174935983;0.4125694946;66571.5052056901;1;0.0169097697;66;9;62;208;1;78;179;0.9;22;5.1;11;3.4;225;5.71;24;0.01;0;24;0.01;0
0.3803921569;0.5960784314;82438.5402537486;-3.20342650381492E-16;0.1333333333;6.0167444704;0.9960784314;0.090374158;0.4752052043;0.4745098039;0.0156862745;0.9803921569;0.0561545658;0.492242201;-0.6942132564;82438.5402537486;1;0.0164823982;80;9;120;827;10;84;181;1.25;48;7.1;9.4;3.5;277;4.77;25;0.16;0;25;0.16;0
0.2431372549;0.662745098;18079.0267128028;-3.20342650381492E-16;0.137254902;4.570215851;0.9725490196;0.1090583738;0.5229957119;0.5607843137;0.0352941176;0.937254902;0.0613015304;0.5448389914;-1.3833255885;18079.0267128028;1;0.0233250118;50;9;240;138;5;76;178;0.96;26;2.8;12.4;4.6;227;5.15;26;-0.72;1;26;-0.72;1
0.3098039216;0.5411764706;86059.6748635141;-3.20342650381492E-16;0.0784313725;6.9335178101;0.9921568627;0.0729258011;0.4643005831;0.4941176471;0.0117647059;0.9803921569;0.037385793;0.4766964052;-1.3508478457;86059.6748635141;1;0.0116644313;74;6;50;42.7;11;75;179;0.78;27;1.9;11.7;4.1;207;5.56;27;-0.48;1;27;-0.48;1
0.4196078431;0.6392156863;8414.0595309496;-3.20342650381492E-16;0.1058823529;6.2831207978;0.9764705882;0.0779786049;0.5151960784;0.4901960784;0.1333333333;0.8431372549;0.042891623;0.5271386437;1.5002349637;8414.0595309496;1;0.0124481504;64;8;104;204;8;80;180;1.2;24;8.4;13.2;4.4;297;6.81;28;-0.55;1;28;-0.55;1
0.3137254902;0.6;50772.4198846597;-3.20342650381492E-16;0.1254901961;5.1121614949;1;0.0907066561;0.4760847753;0.4901960784;0.0078431373;0.9921568627;0.0540957213;0.4928064474;0.1053781364;50772.4198846597;1;0.0162014814;57;6;63;125;7;120;185;0.93;47;14.4;10.8;4;562;7.35;29;-0.36;1;29;-0.36;1
0.1725490196;0.5529411765;48073.3854056132;-3.20342650381492E-16;0.0901960784;4.2576397757;0.9921568627;0.102377817;0.4159146546;0.4470588235;0.0078431373;0.9843137255;0.0544308658;0.4412679272;-0.6554948772;48073.3854056132;1;0.0217323837;76;7;80;191;14;70;179;0.82;25;6.5;13.2;4.3;203;6.88;30;-0.67;1;30;-0.67;1
0.2823529412;0.5764705882;97107.476970396;-3.20342650381492E-16;0.1176470588;4.7662666307;0.9843137255;0.0955850429;0.4695719885;0.5058823529;0;0.9843137255;0.0578957583;0.4873597349;-1.0016328299;97107.476970396;1;0.0170216589;70;9;130;43.5;8;87;176;0.88;25;5.1;13.4;4.4;399;6.78;31;-0.2;1;31;-0.2;1
0.168627451;0.6901960784;61637.2350480584;-3.20342650381492E-16;0.2117647059;2.8064664542;0.9921568627;0.1464096669;0.4878965544;0.5294117647;0.0196078431;0.9725490196;0.0976958325;0.5223580178;-0.5985802289;61637.2350480584;1;0.034814851;80;6;129;1180;12;70;180;0.96;56;18;10.7;3.8;557;12.18;32;-0.13;1;32;-0.13;1
0.3098039216;0.7058823529;165394.489657824;-3.20342650381492E-16;0.1254901961;4.076207003;1;0.1102209645;0.4905215109;0.4784313725;0.0156862745;0.9843137255;0.0605802679;0.5161416719;-0.2117689761;165394.489657824;1;0.0257908728;69;7;280;1070;10;97;177;1.2;31;3.5;7.9;2.9;211;1.52;33;-0.44;1;33;-0.44;1
0.3764705882;0.6588235294;49639.0926412918;-3.20342650381492E-16;0.0705882353;5.6888539929;1;0.0846077452;0.4885982281;0.4823529412;0;1;0.0364990101;0.5077122031;0.5152434448;49639.0926412918;1;0.0190434527;58;7;117;106;11;79;171;0.66;31;7.9;10.5;3.7;302;5.28;34;-0.67;1;34;-0.67;1
0.4470588235;0.6941176471;70563.8325874664;-3.20342650381492E-16;0.1215686275;6.5336341875;0.9921568627;0.0810284134;0.5620680656;0.5607843137;0;0.9921568627;0.051198893;0.5732562039;-0.5373454329;70563.8325874664;1;0.012702165;75;8;489;1130;16;80;180;0.71;38;16.3;10;3.4;270;6;35;-0.56;1;35;-0.56;1
0.337254902;0.6117647059;66573.4371856978;-3.20342650381492E-16;0.1254901961;5.3435748933;0.9882352941;0.0872456817;0.4982699062;0.5215686275;0;0.9882352941;0.054504744;0.5122971359;-0.5912205775;66573.4371856978;1;0.014175456;83;7;297;29.7;9;68;172;1.6;80;7;7.1;2.3;157;4.69;36;-0.67;1;36;-0.67;1
0.3490196078;0.7176470588;74857.9047443291;-3.20342650381492E-16;0.0705882353;4.9748840578;1;0.0935937601;0.4986266567;0.4862745098;0;1;0.0415316583;0.5203397131;0.3113898206;74857.9047443291;1;0.0221248743;61;7;203;118;4;100;175;0.85;52;34.6;11.4;4.3;373;11.07;37;0.51;0;37;0.51;0
0.2941176471;0.5411764706;76486.7125720877;-3.20342650381492E-16;0.0862745098;6.1954282762;0.9921568627;0.0795965645;0.4554149877;0.4705882353;0.0117647059;0.9803921569;0.0401733304;0.4715752708;-0.2997507962;76486.7125720877;1;0.014980425;61;8;68;56.2;5;78;176;0.76;27;11.7;12.4;4.3;166;8.19;38;-0.48;1;38;-0.48;1
0.3803921569;0.5411764706;102529.914002307;-3.20342650381492E-16;0.0588235294;8.7875320657;1;0.0598661912;0.4538054263;0.4549019608;0.0039215686;0.9960784314;0.0277096848;0.4647807811;0.1063276389;102529.914002307;1;0.0100818095;78;8;114;402;10;64;168;0.84;26;1.4;12.7;4.2;161;6.98;39;-0.17;1;39;-0.17;1
0.431372549;0.7019607843;41705.8827527874;-3.20342650381492E-16;0.0745098039;6.1638490651;1;0.0805673085;0.5408718749;0.5294117647;0;1;0.0416731787;0.5550158233;-0.4060889287;41705.8827527874;1;0.0155001791;71;7;199;128;7;65;164;0.66;30;56.3;10;3.1;190;5.36;40;-0.22;1;40;-0.22;1
0.3921568627;0.5882352941;108319.560261438;-3.20342650381492E-16;0.1176470588;6.5042972112;1;0.0784098604;0.491697419;0.5019607843;0.0156862745;0.9843137255;0.0485766957;0.5039421555;-0.465564679;108319.560261438;1;0.0121913442;76;8;70;21.3;10;85;182;1.4;45;16.4;13.4;4.2;287;8.47;41;-0.06;1;41;-0.06;1
0.4039215686;0.7803921569;224834.094302191;-3.20342650381492E-16;0.2235294118;3.0748008671;1;0.1313566531;0.5497730934;0.5058823529;0.0156862745;0.9843137255;0.0937804927;0.5731598586;0.0737939991;224834.094302191;1;0.0262617693;61;9;488;871;12;120;182;1.3;106;36.8;6.8;1.9;84;2.8;42;0.09;0;42;0.09;0
0.4352941176;0.7803921569;82179.1927258747;-3.20342650381492E-16;0.1803921569;3.734656411;1;0.1103954651;0.5867020491;0.5764705882;0.0352941176;0.9647058824;0.0749813517;0.6039155962;-0.0658337945;82179.1927258747;1;0.020494753;70;9;345;2670;3;73;180;0.92;51;131;11.9;4.5;370;9.93;43;-0.55;1;43;-0.55;1
0.2431372549;0.631372549;24421.7018531334;-3.20342650381492E-16;0.1137254902;3.9960396862;1;0.1074807285;0.4505152072;0.4549019608;0.0352941176;0.9647058824;0.0582905109;0.476630369;-0.1186161399;24421.7018531334;1;0.0242125567;67;7;38;35.2;3;108;180;0.77;47;2.4;11.8;3.6;159;2.71;44;-0.89;1;44;-0.89;1
0.3450980392;0.6901960784;144315.061760861;-3.20342650381492E-16;0.1490196078;3.7238611287;0.9960784314;0.1010444793;0.5246179718;0.5215686275;0.0117647059;0.9843137255;0.0668896131;0.5410848912;-0.2596789374;144315.061760861;1;0.0175488432;65;9;354;46.5;1;77;180;0.84;163;1.4;10.4;3.1;115;3.64;45;-0.52;1;45;-0.52;1
0.2549019608;0.5843137255;53805.2832756632;-3.20342650381492E-16;0.1529411765;3.870533789;0.9960784314;0.1033584274;0.443258648;0.4549019608;0;0.9960784314;0.0662894697;0.4645142767;-0.5482327836;53805.2832756632;1;0.0192952843;78;8;36;195;12;90;180;1.1;27;0.2;12;4.3;272;6.08;46;-0.84;1;46;-0.84;1
0.3843137255;0.7098039216;48432.3031141869;-3.20342650381492E-16;0.168627451;3.5964445133;0.9960784314;0.1073773302;0.5183823238;0.4901960784;0.0117647059;0.9843137255;0.0715886744;0.5365218867;0.28372065;48432.3031141869;1;0.0191355013;69;9;571;69.6;8;78;182;0.6;59;81.6;9.6;3.4;189;8.53;47;-0.54;1;47;-0.54;1
0.3843137255;0.5921568627;70544.8791541715;-3.20342650381492E-16;0.1294117647;5.5189635761;0.9921568627;0.0786375228;0.4872212094;0.4862745098;0.0196078431;0.9725490196;0.0543526252;0.4979628621;0.122170397;70544.8791541715;1;0.0105825051;76;7;40;565;4;125;181;0.96;32;1.5;12.4;3.9;223;3.97;48;-0.9;1;48;-0.9;1
0.3764705882;0.6196078431;39658.9475432526;-3.20342650381492E-16;0.1019607843;5.8524429495;1;0.0857015152;0.4705517031;0.4392156863;0.0117647059;0.9882352941;0.0487020703;0.4857165039;1.0101985646;39658.9475432526;1;0.0145016169;68;8;246;228;2;74;173;0.7;266;109;9.7;3.3;344;8.76;49;-0.96;1;49;-0.96;1
0.3921568627;0.7215686275;32910.1585236447;-3.20342650381492E-16;0.0941176471;4.8387239149;0.9960784314;0.1002625719;0.4970661968;0.4588235294;0.0117647059;0.9843137255;0.0532441151;0.5169994746;0.9618428029;32910.1585236447;1;0.0202136527;71;9;58;674;9;74;173;0.76;18;3.5;12.7;3.9;188;5.03;50;-0.78;1;50;-0.78;1
0.4352941176;0.8117647059;68372.2020607459;-3.20342650381492E-16;0.2117647059;3.8123146117;0.9960784314;0.1270391748;0.6009500933;0.5960784314;0;0.9960784314;0.0905855425;0.6218106073;-0.4541911519;68372.2020607459;1;0.0255074167;76;9;682;1350;5;76;164;0.63;278;4.8;11.2;3.8;83;3.75;51;-0.51;1;51;-0.51;1
0.3333333333;0.6823529412;62517.9386697424;-3.20342650381492E-16;0.1333333333;4.1667346405;1;0.1072389717;0.4826863917;0.4705882353;0.0392156863;0.9607843137;0.0588079106;0.5074352895;-0.3531369571;62517.9386697424;1;0.0245044203;62;7;151;497;5;73;175;0.51;50;114;8.2;2.9;199;3.96;52;0.48;0;52;0.48;0
0.2392156863;0.6431372549;73651.9646751249;-3.20342650381492E-16;0.1098039216;4.1411187917;0.9960784314;0.1071677164;0.4633230839;0.4745098039;0.0117647059;0.9843137255;0.0552886133;0.4895377161;-0.1153455902;73651.9646751249;1;0.0249788954;64;8;210;64.1;2;85;170;0.79;31;4.4;11.7;4.3;287;6.87;53;0.04;0;53;0.04;0
0.3803921569;0.7294117647;184978.761168781;-3.20342650381492E-16;0.1607843137;3.9907034809;1;0.1156467138;0.516147591;0.4901960784;0.0274509804;0.9725490196;0.0690844234;0.540114484;-0.0686495775;184978.761168781;1;0.0253153201;75;11;160;7.26;9;76;176;0.91;25;1.8;9.9;3.1;146;5.32;54;-0.51;1;54;-0.51;1
0.431372549;0.631372549;20943.5418377547;-3.20342650381492E-16;0.0901960784;8.1028523425;0.9921568627;0.0697388287;0.5149168522;0.5098039216;0.0274509804;0.9647058824;0.040224105;0.5255835529;-0.6572038142;20943.5418377547;1;0.0110987065;68;11;124;389;8;65;170;1.9;30;8.6;12;4;308;8.96;55;-0.56;1;55;-0.56;1
0.4078431373;0.6862745098;88107.5889888504;-3.20342650381492E-16;0.0823529412;5.6062130076;0.9960784314;0.0921857362;0.5019628507;0.4862745098;0.0117647059;0.9843137255;0.0429570382;0.522589094;0.2903824475;88107.5889888504;1;0.0211326576;75;7;239;473;10;106;172;0.9;36;50.5;11.5;3.9;176;4.18;56;-0.01;1;56;-0.01;1
0.2549019608;0.5921568627;147850.101222607;-3.20342650381492E-16;0.1294117647;4.2403343284;1;0.0971517013;0.4584279402;0.4705882353;0.0117647059;0.9882352941;0.0596343489;0.4774391064;-0.4539084857;147850.101222607;1;0.017791924;71;8;75;22.7;8;76;180;0.71;29;0.6;12.8;4;290;4.54;57;-0.42;1;57;-0.42;1
0.4117647059;0.6862745098;48049.1246136102;-3.20342650381492E-16;0.0901960784;6.0746686717;0.9960784314;0.0830467745;0.5491764126;0.5568627451;0;0.9960784314;0.044483138;0.5632477928;-0.6045542904;48049.1246136102;1;0.015653344;57;6;434;1670;13;65;165;0.89;232;58.4;9.5;3.9;395;6.85;58;-0.58;1;58;-0.58;1
0.2784313725;0.6980392157;60867.7631987697;-3.20342650381492E-16;0.1647058824;3.2834013787;0.9921568627;0.1208788968;0.4758249832;0.4823529412;0.0156862745;0.9764705882;0.0799083929;0.5013713408;0.0505460278;60867.7631987697;1;0.0249638068;84;7;272;50.5;13;74;175;0.98;44;4.7;11.6;4.1;308;6.21;59;-0.72;1;59;-0.72;1
0.4235294118;0.7254901961;129599.917308727;-3.20342650381492E-16;0.1568627451;4.4781159493;0.9921568627;0.1041506615;0.5400501299;0.5176470588;0.0745098039;0.9176470588;0.0665654635;0.5583178753;-0.3244060921;129599.917308727;1;0.0200647071;60;10;236;535;2;92;196;0.67;38;2.8;12.1;3.5;171;3.12;60;0.06;0;60;0.06;0
0.1411764706;0.6784313725;28916.2710803537;-3.20342650381492E-16;0.1882352941;2.683750207;1;0.141384624;0.4416617307;0.4549019608;0.0078431373;0.9921568627;0.097741936;0.4799553522;-0.1385707679;28916.2710803537;1;0.0352920558;66;7;160;29.2;12;81;180;0.8;28;14.1;12.2;4.4;351;6.48;61;1.54;0;61;1.54;0
0.4274509804;0.7607843137;69231.3215378701;-3.20342650381492E-16;0.1921568627;3.7314892777;1;0.1159251542;0.5507745381;0.5058823529;0.0274509804;0.9725490196;0.082467942;0.5694511044;0.4297946835;69231.3215378701;1;0.0209219685;60;9;135;1500;7;61;180;0.71;25;5;8.7;2.9;192;4.92;62;-0.28;1;62;-0.28;1
0.0274509804;0.5333333333;31912.1986005383;-3.20342650381492E-16;0.3411764706;2.3843754421;1;0.1724612544;0.3549888794;0.4352941176;0.0039215686;0.9960784314;0.1361560601;0.4109128842;-0.3745162383;31912.1986005383;1;0.0428322939;69;8;324;5910;15;65;169;0.65;50;4.6;10.6;3.6;102;4.34;63;0.67;0;63;0.67;0
0.2392156863;0.5568627451;55941.3426835832;-3.20342650381492E-16;0.1098039216;4.8542579634;0.9960784314;0.0992337062;0.4354774326;0.4549019608;0;0.9960784314;0.0530229423;0.4590019727;-0.5771329119;55941.3426835832;1;0.0210422166;80;6;67;134;7;83;178;0.94;128;0.4;13;3.9;208;6.51;64;-0.65;1;64;-0.65;1
0.3176470588;0.5647058824;81569.6113187235;-3.20342650381492E-16;0.1215686275;5.8481032622;1;0.0890561784;0.468800827;0.4862745098;0.0156862745;0.9843137255;0.055512679;0.4851523193;-0.0541277165;81569.6113187235;1;0.0155985576;72;7;50;148;12;92;178;0.93;28;1;11.4;3.5;183;3.53;65;-0.49;1;65;-0.49;1
0.3215686275;0.5176470588;45600.0736793541;-3.20342650381492E-16;0.0941176471;7.2247754118;0.9960784314;0.066189567;0.4174529997;0.4117647059;0;0.9960784314;0.0420030648;0.4275463308;0.7637686901;45600.0736793541;1;0.008528858;70;7;63;728;7;90;176;1.7;15;1.8;11.8;3.6;303;9.33;66;-0.81;1;66;-0.81;1
0.4039215686;0.6980392157;9984.3604152249;-3.20342650381492E-16;0.1411764706;4.6632997864;0.9960784314;0.1044532667;0.5244800209;0.5176470588;0.0235294118;0.9725490196;0.0608417103;0.5447775744;-0.4687805816;9984.3604152249;1;0.0217033132;60;8;37;50.2;5;79;170;0.73;53;3;13.6;4.3;150;3.53;67;-0.33;1;67;-0.33;1
0.3254901961;0.7019607843;55694.6138715879;-3.20342650381492E-16;0.1568627451;3.8717446567;0.9921568627;0.1104992103;0.5053070324;0.4901960784;0;0.9921568627;0.0697177479;0.5268474134;-0.1641128567;55694.6138715879;1;0.022233;71;10;226;1560;10;72;162;0.85;24;22.6;8.2;3;243;4.88;68;-0.43;1;68;-0.43;1
0.3058823529;0.6235294118;101017.518754325;-3.20342650381492E-16;0.0862745098;5.3822930348;0.9960784314;0.0868302674;0.4612822618;0.4549019608;0.0156862745;0.9803921569;0.0406758992;0.4810258545;0.6144108867;101017.518754325;1;0.0186045477;59;7;774;765;9;60;179;0.69;247;78.3;6.6;2.2;228;5.22;69;-0.51;1;69;-0.51;1
0.4;0.5843137255;102828.325259516;-3.20342650381492E-16;0.1333333333;6.4149255976;0.9960784314;0.0808871755;0.4807237673;0.4352941176;0.0078431373;0.9882352941;0.0566732508;0.4921350386;0.8838092625;102828.325259516;1;0.0111015558;77;9;360;647;5;64;175;1.4;29;6.7;10.6;3.6;245;5.6;70;-0.15;1;70;-0.15;1
0.4549019608;0.8274509804;95058.4736178393;-3.20342650381492E-16;0.2470588235;3.1275936134;1;0.1318863952;0.6191557741;0.6039215686;0;1;0.1005474866;0.638881037;-0.2027816975;95058.4736178393;1;0.0248151068;77;8;858;321;8;49;173;0.38;33;96.3;6.9;2.4;214;6.61;71;-0.21;1;71;-0.21;1
0.4470588235;0.6745098039;3910.6656824298;-3.20342650381492E-16;0.1294117647;4.6958205371;0.9450980392;0.0761390047;0.5441252399;0.5333333333;0.0980392157;0.8470588235;0.0523064811;0.55310674;0.3196514194;3910.6656824298;1;0.0098547892;50;9;43;111;2;70;177;1.1;16;0.9;13;4.5;164;4.87;72;0.7657657658;0;72;0.7657657658;0
0.2470588235;0.6509803922;34500.0750634371;-3.20342650381492E-16;0.2941176471;2.6329890277;0.9921568627;0.1424314355;0.4364649782;0.4509803922;0;0.9921568627;0.1071923361;0.4698159453;0.0908198807;34500.0750634371;1;0.0302253453;67;10;167;348;3;68;175;0.53;192;77.7;9.8;3.3;210;5.79;73;0.0287356322;0;73;0.0287356322;0
0.4196078431;0.7333333333;104224.099300269;-3.20342650381492E-16;0.1764705882;3.7039790229;0.9960784314;0.1075120554;0.5579592901;0.5490196078;0.062745098;0.9333333333;0.0737343724;0.5745969189;-0.0839659335;104224.099300269;1;0.0188430498;77;9;218;481;4;84;175;0.77;345;102;8.6;3.2;79;3.12;74;0.6444906445;0;74;0.6444906445;0
0.3960784314;0.7803921569;16820.2187312572;-3.20342650381492E-16;0.1921568627;3.2701694019;0.9960784314;0.1229126691;0.5455786262;0.4980392157;0.0784313725;0.9176470588;0.0849826326;0.5671666049;0.3161187736;16820.2187312572;1;0.0240219204;54;9;257;212;2;72;170;0.84;67;40.8;9.6;3.6;239;3.42;75;0.641509434;0;75;0.641509434;0
0.4156862745;0.7725490196;4203.8805997693;-3.20342650381492E-16;0.1803921569;3.2873451938;0.9882352941;0.1182502672;0.5346864716;0.4901960784;0.1098039216;0.8784313725;0.0791392853;0.5554245327;0.5691305703;4203.8805997693;1;0.0226067886;73;8;188;49.4;12;94;172;0.99;156;29.9;11.4;3.9;265;9.81;76;0.6842105263;0;76;0.6842105263;0
0.4941176471;0.7137254902;4210.0628988851;-3.20342650381492E-16;0.1137254902;4.4770266964;0.9960784314;0.0700982274;0.594227917;0.5843137255;0.1137254902;0.8823529412;0.0473274626;0.6012253093;0.4977925234;4210.0628988851;1;0.0083650552;79;7;60;145;10;85;183;0.86;33;6.74;12.7;4.3;160;6.07;77;0.6344827586;0;77;0.6344827586;0
0.3333333333;0.5647058824;107046.342037678;-3.20342650381492E-16;0.0980392157;6.2328514343;1;0.0800000889;0.46476402;0.4745098039;0.0117647059;0.9882352941;0.0430382906;0.4799441486;-0.6551572037;107046.342037678;1;0.0143407915;72;10;124;13.5;1.7692307692;76;185;0.83;26;1.4;13.6;4.9;323;7.47;78;0.24;0;78;0.24;0
0.3764705882;0.5764705882;118020.77076509;-3.20342650381492E-16;0.1294117647;6.0006048306;0.9921568627;0.0820451712;0.4829820127;0.4941176471;0.0117647059;0.9803921569;0.0499775048;0.4965478646;-0.2342464812;118020.77076509;1;0.0132881573;71;9;207;183;11;70;170;0.93;88;1.08;10.8;3.6;177;4.89;79;0.5846994536;0;79;0.5846994536;0
0.2941176471;0.8039215686;80315.5373933103;-3.20342650381492E-16;0.2549019608;2.4764991056;1;0.1459675003;0.5537660937;0.5294117647;0.0039215686;0.9960784314;0.1071035808;0.5822886672;-0.0176226373;80315.5373933103;1;0.0324032054;76;9;906;65.9;1;77;182;0.94;50;2.1;11.3;3.6;203;5.44;80;4.0379362671;0;80;4.0379362671;0
0.4274509804;0.7764705882;77449.86757401;-3.20342650381492E-16;0.1568627451;4.2145977997;1;0.1103000656;0.5565496338;0.5254901961;0.0274509804;0.9725490196;0.0706908896;0.5756859489;0.1360421328;77449.86757401;1;0.0216668168;73;9;965;945;2;62;180;0.57;96;275;11.4;4.1;258;7.12;81;0.5767195767;0;81;0.5767195767;0
0.3764705882;0.5647058824;130849.335240292;-3.20342650381492E-16;0.0823529412;6.4068849397;0.9960784314;0.0707281994;0.4835391047;0.4980392157;0.0039215686;0.9921568627;0.0347282466;0.4957052375;-0.3179626257;130849.335240292;1;0.0119136166;75;8;287;150;6;75;175;1.1;63;72.5;11;3.9;241;9.13;82;0.0066666667;0;82;0.0066666667;0
0.1862745098;0.8803921569;499.0779853902;-3.20342650381492E-16;0.2823529412;2.8059877669;0.9921568627;0.1810372135;0.5793370536;0.5843137255;0.062745098;0.9294117647;0.1226766581;0.6229651075;-0.4589077633;499.0779853902;1;0.0524541035;79;8;68;7.21;2;82;186;1.12;10;0.5;13.1;4.2;170;4.57;83;-0.9029126214;1;83;-0.9029126214;1
0.4;0.462745098;342.6550711265;-3.20342650381492E-16;0.031372549;17.2659870679;0.5843137255;0.0214648039;0.4277331985;0.4274509804;0.1529411765;0.431372549;0.0135527945;0.4289816778;-1.0424521265;342.6550711265;1;0.0010695907;82;9;53;6.73;2;105;180;1.19;13;0.85;12.5;4.5;220;6.58;84;0.0089153046;0;84;0.0089153046;0
0.3490196078;0.7764705882;4004.4668512111;-3.20342650381492E-16;0.1882352941;2.7720115278;0.9843137255;0.1259185129;0.5420642377;0.4980392157;0.2196078431;0.7647058824;0.0867156765;0.564086546;0.5657369362;4004.4668512111;1;0.0243599936;71;10;141;0.45;24;132;190;0.96;37;17.62;11.4;4.1;221;6.73;85;0.7333333333;0;85;0.7333333333;0
0.137254902;0.6352941176;17233.543006536;-3.20342650381492E-16;0.0823529412;4.1479863567;1;0.1080049873;0.4462862305;0.4588235294;0.0117647059;0.9882352941;0.0509051585;0.476554065;-0.5145888392;17233.543006536;1;0.0279323774;67;9;340;1067;0;55;187;0.49;35;67.57;7.6;2.7;210;6.1;86;0.3983130272;0;86;0.3983130272;0
0.3176470588;0.5960784314;57643.3726566705;-3.20342650381492E-16;0.1294117647;5.0478282448;0.9960784314;0.091819324;0.4809553337;0.4941176471;0.0078431373;0.9882352941;0.0553774431;0.4971976217;-0.034815603;57643.3726566705;1;0.015887442;68;9;124;82.7;8;80;170;1.01;23;5.67;11.9;4.3;277;9.58;87;-0.9284159613;1;87;-0.9284159613;1
0.3764705882;0.7019607843;78737.479384852;-3.20342650381492E-16;0.1411764706;4.5944771207;0.9960784314;0.1017280517;0.5221674541;0.5294117647;0.0117647059;0.9843137255;0.0608767944;0.5411765432;-0.2897504149;78737.479384852;1;0.0202132007;76;8;52;255;10;87;183;0.68;34;2.31;11.2;3.8;241;5.67;88;0.2745098039;0;88;0.2745098039;0
0.3960784314;0.6196078431;80894.1919569397;-3.20342650381492E-16;0.0941176471;6.2126426108;1;0.0788754447;0.4740356174;0.4392156863;0.0117647059;0.9882352941;0.044912195;0.4868811681;0.8317032696;80894.1919569397;1;0.0123435053;65;10;331;897;6;73;180;0.68;97;100.84;8.8;3.7;534;5.82;89;-0.2040133779;1;89;-0.2040133779;1
0.462745098;0.5725490196;57792.4504728951;-3.20342650381492E-16;0.0470588235;12.3781230763;0.9921568627;0.0473385045;0.5213551867;0.5294117647;0.0588235294;0.9333333333;0.021348326;0.5284193438;-1.2100356207;57792.4504728951;1;0.0074157722;61;9;356;286;11;106;175;0.88;442;49.15;10.2;3.4;266;8.24;90;1.5664335664;0;90;1.5664335664;0
0.4117647059;0.7490196078;121789.296424452;-3.20342650381492E-16;0.1803921569;4.089653841;1;0.116709515;0.5444318087;0.5215686275;0.0235294118;0.9764705882;0.0786254083;0.5653717366;-0.2232160279;121789.296424452;1;0.0232392061;70;8;415;906;13;79;176;0.71;62;40.08;11.7;3.9;126;7.71;91;-0.7141280353;1;91;-0.7141280353;1
0.2588235294;0.6039215686;52262.0292964245;-3.20342650381492E-16;0.1490196078;4.1234210914;0.9960784314;0.1128806253;0.4488119161;0.4588235294;0.0117647059;0.9843137255;0.0705956951;0.4745180725;-0.2864183943;52262.0292964245;1;0.0237352651;76;8;80;329;6;80;172;1.36;28;9.98;10.8;3.5;202;8.17;92;-0.962006079;1;92;-0.962006079;1
0.1647058824;0.6745098039;9496.5387773933;-3.20342650381492E-16;0.1137254902;3.9610363999;0.9960784314;0.1134038301;0.4902547417;0.5019607843;0.0549019608;0.9411764706;0.0593766347;0.5182127839;-0.5424257627;9496.5387773933;1;0.0281947776;69;10;135;43.8;5;89;163;0.74;12.1;1.46;14;4.6;225;4.61;93;9.9817351598;0;93;9.9817351598;0
0.3725490196;0.5764705882;134484.329042676;-3.20342650381492E-16;0.1215686275;6.1123158902;0.9960784314;0.0829960829;0.4858469817;0.5137254902;0.0078431373;0.9882352941;0.0498208858;0.4994711855;-0.9710387334;134484.329042676;1;0.0134241756;76;8;63;0.25;3;100;182;1.14;24;1.13;14.5;5.1;196;7.74;94;-0.96;1;94;-0.96;1
0.3568627451;0.5843137255;6950.5145098039;-3.20342650381492E-16;0.0509803922;6.4017616935;0.9176470588;0.0717798926;0.5116331468;0.5450980392;0.0235294118;0.8941176471;0.032871546;0.5219178862;-1.8716782431;6950.5145098039;1;0.010629803;70;7;109;4.41;6;95;185;0.81;117;39.99;9.7;3.3;179;5.55;95;0.6916099773;0;95;0.6916099773;0
0.4823529412;0.8;40145.6419992311;-3.20342650381492E-16;0.1764705882;4.3628703967;0.9960784314;0.1026372442;0.6358946908;0.6352941176;0.0392156863;0.9568627451;0.0732308794;0.6491270767;-0.4542139123;40145.6419992311;1;0.0170039039;61;9;565;482;6;80;175;0.58;33;11.46;12.2;4;224;6.28;96;-0.6348547718;1;96;-0.6348547718;1
0.4549019608;0.7725490196;5319.0160092272;-3.20342650381492E-16;0.168627451;3.1786366234;0.9960784314;0.0991292296;0.5832508264;0.5529411765;0.3921568627;0.6039215686;0.0716198892;0.5960404577;0.9578832739;5319.0160092272;1;0.0150827007;71;7;99;252;12;88;184;0.66;15;1.36;12.5;4;146;4.32;97;0.1071428571;0;97;0.1071428571;0
0.0352941176;0.5098039216;70184.8084890427;-3.20342650381492E-16;0.337254902;2.1888404819;0.9921568627;0.1580417689;0.34503362;0.4235294118;0.0078431373;0.9843137255;0.1338473439;0.3912409566;-0.5992964154;70184.8084890427;1;0.0340212872;69;9;85;135;6;83;183;0.85;86;6.81;10.89;3.6;384;4.42;98;0.562962963;0;98;0.562962963;0
